Clinical Drug Trials
…
# Check percentages
temp <- clinical_data %>%
pivot_wider(names_from = race, values_from = `percent race`) %>%
rowwise() %>%
mutate(total_percent = sum(c(other, asian, black, white))) %>%
ungroup()
temp %>%
select(`brand name`, other, asian, black, white, total_percent) %>%
filter(total_percent != 100)

# A tibble: 99 × 6
   `brand name` other asian black white total_percent
   <fct>        <dbl> <dbl> <dbl> <dbl>         <dbl>
 1 ADLYXIN§         2    32     3    64           101
 2 ADLYXIN§         2    32     3    64           101
 3 ADLYXIN§         2    32     3    64           101
 4 AKYNZEO          1     1     1   100           103
 5 AKYNZEO          1     1     1   100           103
 6 AKYNZEO          1     1     1   100           103
 7 ALECENSA         7    18     2    74           101
 8 ALECENSA         7    18     2    74           101
 9 ALECENSA         7    18     2    74           101
10 ARISTADA         1    13    40    47           101
# ℹ 89 more rows
…
